…
``` r
tidy_pols = pols_month%>%
  separate(mon,into = c("year", "month", "day"), sep = "-")%>%
  mutate(president = ifelse(prez_dem==0, "gop", "dem"))%>%
  mutate(month = month.name[as.numeric(month)], year = as.integer(year))%>%
  select(-prez_dem, -prez_gop, -day)
  
tidy_pols
```

    ## # A tibble: 822 × 9
    ##     year month     gov_gop sen_gop rep_gop gov_dem sen_dem rep_dem president
    ##    <int> <chr>       <dbl>   <dbl>   <dbl>   <dbl>   <dbl>   <dbl> <chr>    
    ##  1  1947 January        23      51     253      23      45     198 dem      
    ##  2  1947 February       23      51     253      23      45     198 dem      
    ##  3  1947 March          23      51     253      23      45     198 dem      
    ##  4  1947 April          23      51     253      23      45     198 dem      
    ##  5  1947 May            23      51     253      23      45     198 dem      
    ##  6  1947 June           23      51     253      23      45     198 dem      
    ##  7  1947 July           23      51     253      23      45     198 dem      
    ##  8  1947 August         23      51     253      23      45     198 dem      
    ##  9  1947 September      23      51     253      23      45     198 dem      
    ## 10  1947 October        23      51     253      23      45     198 dem      
    ## # … with 812 more rows
…
``` r
tidy_snp = snp%>%
  separate(date,into = c("month", "day","year"), sep = "/")%>%
  mutate(month = month.name[as.integer(month)], year = as.integer(year), day = as.integer(day))%>%
  mutate(year = as.integer(ifelse(year>=15, year+1900, year+2000)))%>%
  select(year, month, close)%>%arrange(year, month)

tidy_snp
```

    ## # A tibble: 787 × 3
    ##     year month     close
    ##    <int> <chr>     <dbl>
    ##  1  1915 April    2086. 
    ##  2  1915 February 2104. 
    ##  3  1915 January  1995. 
    ##  4  1915 July     2080. 
    ##  5  1915 June     2063. 
    ##  6  1915 March    2068. 
    ##  7  1915 May      2107. 
    ##  8  1950 April      18.0
    ##  9  1950 August     18.4
    ## 10  1950 December   20.4
    ## # … with 777 more rows
…
tidy_emp
```

    ## # A tibble: 816 × 3
    ##     year month     unemploy
    ##    <int> <chr>        <dbl>
    ##  1  1948 January        3.4
    ##  2  1948 February       3.8
    ##  3  1948 March          4  
    ##  4  1948 April          3.9
    ##  5  1948 May            3.5
    ##  6  1948 June           3.6
    ##  7  1948 July           3.6
    ##  8  1948 August         3.9
    ##  9  1948 September      3.8
    ## 10  1948 October        3.7
    ## # … with 806 more rows

\#combine the three datasets

``` r
tidy_combine = full_join(tidy_pols, tidy_snp)%>% full_join(tidy_emp)
```

    ## Joining, by = c("year", "month")
    ## Joining, by = c("year", "month")

``` r
tidy_combine
```

    ## # A tibble: 835 × 11
    ##     year month     gov_gop sen_gop rep_gop gov_dem sen_dem rep_dem presi…¹ close
    ##    <int> <chr>       <dbl>   <dbl>   <dbl>   <dbl>   <dbl>   <dbl> <chr>   <dbl>
    ##  1  1947 January        23      51     253      23      45     198 dem        NA
    ##  2  1947 February       23      51     253      23      45     198 dem        NA
    ##  3  1947 March          23      51     253      23      45     198 dem        NA
    ##  4  1947 April          23      51     253      23      45     198 dem        NA
    ##  5  1947 May            23      51     253      23      45     198 dem        NA
    ##  6  1947 June           23      51     253      23      45     198 dem        NA
    ##  7  1947 July           23      51     253      23      45     198 dem        NA
    ##  8  1947 August         23      51     253      23      45     198 dem        NA
    ##  9  1947 September      23      51     253      23      45     198 dem        NA
    ## 10  1947 October        23      51     253      23      45     198 dem        NA
    ## # … with 825 more rows, 1 more variable: unemploy <dbl>, and abbreviated
    ## #   variable name ¹​president
…
